{
    "content":  [
                    {
                        "id":  "x4_G8ZsBkkSJGOi3CvUy",
                        "name":  "Sushi Master",
                        "cuisineType":  "Japanese",
                        "averageRating":  "0.0",
                        "totalReviews":  0,
                        "address":  {
                                        "streetNumber":  "8",
                                        "streetName":  "Poland Street",
                                        "unit":  null,
                                        "city":  "London",
                                        "state":  "Greater London",
                                        "postalCode":  "W1F 8PR",
                                        "country":  "United Kingdom"
                                    },
                        "photos":  [
                                       {
                                           "url":  "8ecc10bb-acc4-4f0c-bdfb-5b271285d868.png",
                                           "uploadDate":  "2026-01-25T02:20:46"
                                       }
                                   ]
                    },
                    {
                        "id":  "yo_G8ZsBkkSJGOi3EPXt",
                        "name":  "The Greek House",
                        "cuisineType":  "Greek",
                        "averageRating":  "0.0",
                        "totalReviews":  0,
                        "address":  {
                                        "streetNumber":  "32",
                                        "streetName":  "Store Street",
                                        "unit":  null,
                                        "city":  "London",
                                        "state":  "Greater London",
                                        "postalCode":  "WC1E 7BS",
                                        "country":  "United Kingdom"
                                    },
                        "photos":  [
                                       {
                                           "url":  "84b2e7c0-f256-4de0-807b-9831c515b865.png",
                                           "uploadDate":  "2026-01-25T02:20:48"
                                       }
                                   ]
                    },
                    {
                        "id":  "yY_G8ZsBkkSJGOi3EPWO",
                        "name":  "El Toro",
                        "cuisineType":  "Spanish",
                        "averageRating":  "0.0",
                        "totalReviews":  0,
                        "address":  {
                                        "streetNumber":  "15",
                                        "streetName":  "Charlotte Street",
                                        "unit":  null,
                                        "city":  "London",
                                        "state":  "Greater London",
                                        "postalCode":  "W1T 1RH",
                                        "country":  "United Kingdom"
                                    },
                        "photos":  [
                                       {
                                           "url":  "4c52a422-0989-4dc2-b96b-5b8470d3d920.png",
                                           "uploadDate":  "2026-01-25T02:20:48"
                                       }
                                   ]
                    },
                    {
                        "id":  "zI_G8ZsBkkSJGOi3FPV5",
                        "name":  "Thai Orchid",
                        "cuisineType":  "Thai",
                        "averageRating":  "0.0",
                        "totalReviews":  0,
                        "address":  {
                                        "streetNumber":  "45",
                                        "streetName":  "Warren Street",
                                        "unit":  null,
                                        "city":  "London",
                                        "state":  "Greater London",
                                        "postalCode":  "W1T 6AD",
                                        "country":  "United Kingdom"
                                    },
                        "photos":  [
                                       {
                                           "url":  "c6260ed8-4ef2-48ab-8c05-9ace8130b601.png",
                                           "uploadDate":  "2026-01-25T02:20:49"
                                       }
                                   ]
                    },
                    {
                        "id":  "0I_N8ZsBkkSJGOi3GfU3",
                        "name":  "Raj Pavilion",
                        "cuisineType":  "Indian",
                        "averageRating":  "0.0",
                        "totalReviews":  0,
                        "address":  {
                                        "streetNumber":  "27",
                                        "streetName":  "Brick Lane",
                                        "unit":  null,
                                        "city":  "London",
                                        "state":  "Greater London",
                                        "postalCode":  "E1 6PU",
                                        "country":  "United Kingdom"
                                    },
                        "photos":  [
                                       {
                                           "url":  "110858c9-efd9-4db5-859c-4f4fbf80959d.png",
                                           "uploadDate":  "2026-01-25T02:28:29"
                                       }
                                   ]
                    },
                    {
                        "id":  "0Y_N8ZsBkkSJGOi3GfVf",
                        "name":  "Sushi Master",
                        "cuisineType":  "Japanese",
                        "averageRating":  "0.0",
                        "totalReviews":  0,
                        "address":  {
                                        "streetNumber":  "8",
                                        "streetName":  "Poland Street",
                                        "unit":  null,
                                        "city":  "London",
                                        "state":  "Greater London",
                                        "postalCode":  "W1F 8PR",
                                        "country":  "United Kingdom"
                                    },
                        "photos":  [
                                       {
                                           "url":  "14a4f72a-ab58-4d7f-9adb-38f29e64c072.png",
                                           "uploadDate":  "2026-01-25T02:28:29"
                                       }
                                   ]
                    },
                    {
                        "id":  "0o_N8ZsBkkSJGOi3GfWN",
                        "name":  "The Rustic Olive",
                        "cuisineType":  "Italian",
                        "averageRating":  "0.0",
                        "totalReviews":  0,
                        "address":  {
                                        "streetNumber":  "92",
                                        "streetName":  "Dean Street",
                                        "unit":  null,
                                        "city":  "London",
                                        "state":  "Greater London",
                                        "postalCode":  "W1D 3SR",
                                        "country":  "United Kingdom"
                                    },
                        "photos":  [
                                       {
                                           "url":  "a8538a68-1074-4ad5-9e87-b3293ba0cff2.png",
                                           "uploadDate":  "2026-01-25T02:28:29"
                                       }
                                   ]
                    },
                    {
                        "id":  "04_N8ZsBkkSJGOi3GfW0",
                        "name":  "El Toro",
                        "cuisineType":  "Spanish",
                        "averageRating":  "0.0",
                        "totalReviews":  0,
                        "address":  {
                                        "streetNumber":  "15",
                                        "streetName":  "Charlotte Street",
                                        "unit":  null,
                                        "city":  "London",
                                        "state":  "Greater London",
                                        "postalCode":  "W1T 1RH",
                                        "country":  "United Kingdom"
                                    },
                        "photos":  [
                                       {
                                           "url":  "f52c9ae7-214c-4265-9947-b2cb4eba293c.png",
                                           "uploadDate":  "2026-01-25T02:28:29"
                                       }
                                   ]
                    }
                ],
    "pageable":  {
                     "pageNumber":  2,
                     "pageSize":  8,
                     "sort":  {
                                  "empty":  true,
                                  "unsorted":  true,
                                  "sorted":  false
                              },
                     "offset":  16,
                     "unpaged":  false,
                     "paged":  true
                 },
    "last":  false,
    "totalPages":  4,
    "totalElements":  28,
    "numberOfElements":  8,
    "first":  false,
    "size":  8,
    "number":  2,
    "sort":  {
                 "empty":  true,
                 "unsorted":  true,
                 "sorted":  false
             },
    "empty":  false
}
